{
	"info": {
		"_postman_id": "9de2625b-6078-4b75-9445-df6450fcf9ae",
		"name": "S34",
		"schema": "https://schema.getpostman.com/json/collection/v2.1.0/collection.json",
		"_exporter_id": "27194892",
		"_collection_link": "https://restless-station-676530.postman.co/workspace/Team-Workspace~a5feb1be-34fe-484e-83c3-3038232d2b3a/collection/27194892-9de2625b-6078-4b75-9445-df6450fcf9ae?action=share&creator=27194892&source=collection_link"
	},
	"item": [
		{
			"name": "GET METHOD",
			"request": {
				"method": "GET",
				"header": [],
				"url": {
					"raw": "localhost:4000/",
					"host": [
						"localhost"
					],
					"port": "4000",
					"path": [
						""
					]
				}
			},
			"response": []
		},
		{
			"name": "GET METHOD /hello",
			"request": {
				"method": "GET",
				"header": [],
				"url": {
					"raw": "localhost:4000/hello",
					"host": [
						"localhost"
					],
					"port": "4000",
					"path": [
						"hello"
					]
				}
			},
			"response": []
		},
		{
			"name": "creating POST METHOD /hello",
			"request": {
				"method": "POST",
				"header": [],
				"body": {
					"mode": "raw",
					"raw": "{\r\n    \"firstName\" :  \"James\",\r\n    \"lastName\" : \"Tabla \"\r\n}",
					"options": {
						"raw": {
							"language": "json"
						}
					}
				},
				"url": {
					"raw": "localhost:4000/hello",
					"host": [
						"localhost"
					],
					"port": "4000",
					"path": [
						"hello"
					]
				}
			},
			"response": []
		},
		{
			"name": "SignUp",
			"request": {
				"method": "POST",
				"header": [],
				"body": {
					"mode": "raw",
					"raw": "{\r\n    \"username\" : \"pomares\",\r\n    \"password\" : \"test123\"\r\n}",
					"options": {
						"raw": {
							"language": "json"
						}
					}
				},
				"url": {
					"raw": "localhost:4000/signup",
					"host": [
						"localhost"
					],
					"port": "4000",
					"path": [
						"signup"
					]
				}
			},
			"response": []
		},
		{
			"name": "Change Password",
			"request": {
				"method": "PUT",
				"header": [],
				"body": {
					"mode": "raw",
					"raw": "{\r\n    \"username\" : \"pomares\",\r\n    \"password\" : \"testnew123\"\r\n}",
					"options": {
						"raw": {
							"language": "json"
						}
					}
				},
				"url": {
					"raw": "localhost:4000/change-password",
					"host": [
						"localhost"
					],
					"port": "4000",
					"path": [
						"change-password"
					]
				}
			},
			"response": []
		},
		{
			"name": "Homepage",
			"request": {
				"method": "GET",
				"header": [],
				"url": {
					"raw": "localhost:4000/home",
					"host": [
						"localhost"
					],
					"port": "4000",
					"path": [
						"home"
					]
				}
			},
			"response": []
		},
		{
			"name": "Registered Users",
			"request": {
				"method": "GET",
				"header": []
			},
			"response": []
		},
		{
			"name": "Delete User",
			"request": {
				"method": "DELETE",
				"header": []
			},
			"response": []
		}
	]
}