{
	"info": {
		"_postman_id": "ef38e6da-87ce-4e33-801b-3fc1f90a869a",
		"name": "S35 Activity",
		"schema": "https://schema.getpostman.com/json/collection/v2.1.0/collection.json",
		"_exporter_id": "27194892",
		"_collection_link": "https://restless-station-676530.postman.co/workspace/Team-Workspace~a5feb1be-34fe-484e-83c3-3038232d2b3a/collection/27194892-ef38e6da-87ce-4e33-801b-3fc1f90a869a?action=share&creator=27194892&source=collection_link"
	},
	"item": [
		{
			"name": "Create User",
			"request": {
				"method": "POST",
				"header": [],
				"body": {
					"mode": "raw",
					"raw": "{\r\n    \"username\" : \"JohnDoe\"\r\n }",
					"options": {
						"raw": {
							"language": "json"
						}
					}
				},
				"url": {
					"raw": "localhost:3001/signup",
					"host": [
						"localhost"
					],
					"port": "3001",
					"path": [
						"signup"
					]
				}
			},
			"response": []
		},
		{
			"name": "Get User",
			"request": {
				"method": "GET",
				"header": []
			},
			"response": []
		}
	]
}